Spring 2022/Electornics 1 Lab/lab 3/PreLab/lab3_prelab_figure2_1kresistor__D2_with_Vin_data.csv

#Digilent WaveForms Oscilloscope Acquisition
#Device Name: Discovery2
#Serial Number: SN:210321B0DF82
#Date Time: 2022-02-28 21:29:47.500
#Sample rate: 1.5873e+06Hz
#Samples: 8192
#Trigger: Source: Channel 1 Type: Edge Condition: Rising Level: -1.27837 V Hyst.: Auto HoldOff: 100 ns
#Channel 1: Range: 5 V/div Offset: 0 V Attenuation: 1 X Sample Mode: Average
#Channel 2: Range: 5 V/div Offset: 0 V Attenuation: 1 X Sample Mode: Average
#Wavegen Channel 1: Running
#Mode: Simple
#Type: Sine
#Frequency: 1 kHz
#Period: 1 ms
#Amplitude: 5 V
#Offset: 0 V
#Symmetry: 50 %
#Phase: 0 °

Time (s),Channel 1 (V),Channel 2 (V)
-0.00257985,0.6782244630936913,3.439847641445215
-0.00257922,0.6782244630936913,3.425287359817255
-0.00257859,0.6782244630936913,3.40708700778229
-0.00257796,0.670879678777393,3.399806866968298
-0.00257733,0.670879678777393,3.381606514933349
-0.0025767,0.670879678777393,3.370686303712374
-0.00257607,0.670879678777393,3.359766092491403
-0.00257544,0.670879678777393,3.345205810863432
-0.00257481,0.6672072866192439,3.334285599642457
-0.00257418,0.6672072866192439,3.319725318014497
-0.00257355,0.6672072866192439,3.308805106793515
-0.00257292,0.670879678777393,3.286964684351557
-0.00257229,0.670879678777393,3.268764332316607
-0.00257166,0.670879678777393,3.25420405068864
-0.00257103,0.6672072866192472,3.239643769060667
-0.0025704,0.6745520709355421,3.225083487432707
-0.00256977,0.6745520709355421,3.206883135397748
-0.00256914,0.6708796787773946,3.188682783362799
-0.00256851,0.670879678777393,3.174122501734824
-0.00256788,0.6745520709355405,3.16320229051384
-0.00256725,0.670879678777393,3.14500193847889
-0.00256662,0.6672072866192439,3.130441656850924
-0.00256599,0.670879678777393,3.112241304815961
-0.00256536,0.670879678777393,3.10132109359499
-0.00256473,0.6745520709355421,3.083120741560032
-0.0025641,0.6708796787773946,3.064920389525082
-0.00256347,0.670879678777393,3.05764024871109
-0.00256284,0.670879678777393,3.039439896676127
-0.00256221,0.670879678777393,3.028519685455157
-0.00256158,0.6672072866192439,3.006679263013207
-0.00256095,0.6672072866192439,2.992118981385232
-0.00256032,0.6672072866192439,2.973918629350282
-0.00255969,0.6635348944610947,2.959358347722315
-0.00255906,0.6635348944610947,2.937517925280375
-0.00255843,0.6635348944610947,2.922957643652399
-0.0025578,0.6635348944610947,2.912037432431424
-0.00255717,0.6672072866192439,2.890197009989474
-0.00255654,0.6672072866192439,2.875636728361507
-0.00255591,0.6672072866192422,2.868356587547515
-0.00255528,0.6635348944610947,2.850156235512565
-0.00255465,0.6635348944610947,2.835595953884599
-0.00255402,0.6598625023029473,2.813755531442658
-0.00255339,0.6635348944610947,2.791915109000699
-0.00255276,0.6598625023029456,2.780994897779724
-0.00255213,0.6635348944610947,2.766434616151757
-0.0025515,0.6635348944610947,2.75187433452379
-0.00255087,0.6635348944610947,2.730033912081832
-0.00255024,0.6635348944610947,2.711833560046882
-0.00254961,0.6635348944610947,2.697273278418915
-0.00254898,0.6635348944610947,2.682712996790955
-0.00254835,0.6598625023029456,2.668152715162982
-0.00254772,0.6598625023029456,2.649952363128024
-0.00254709,0.6598625023029456,2.631752011093074
-0.00254646,0.6561901101447964,2.606271518244124
-0.00254583,0.6561901101447981,2.591711236616152
-0.0025452,0.6598625023029456,2.580791025395182
-0.00254457,0.6561901101447964,2.566230743767215
-0.00254394,0.659862502302944,2.555310532546245
-0.00254331,0.6598625023029456,2.53347011010429
-0.00254268,0.6561901101447964,2.507989617255348
-0.00254205,0.6561901101447964,2.489789265220399
-0.00254142,0.6525177179866473,2.471588913185432
-0.00254079,0.6561901101447964,2.45338856115047
-0.00254016,0.6561901101447964,2.44610842033649
-0.00253953,0.6561901101447964,2.427908068301532
-0.0025389,0.6561901101447964,2.406067645859592
-0.00253827,0.6525177179866473,2.384227223417632
-0.00253764,0.6525177179866473,2.373307012196657
-0.00253701,0.6451729336703523,2.355106660161707
-0.00253638,0.6488453258284982,2.340546378533732
-0.00253575,0.6488453258284982,2.322346026498765
-0.00253512,0.6488453258284982,2.304145674463815
-0.00253449,0.645172933670349,2.282305252021865
-0.00253386,0.6415005415121999,2.267744970393892
-0.00253323,0.6415005415121999,2.253184688765932
-0.0025326,0.645172933670349,2.234984336730974
-0.00253197,0.6378281493540541,2.216783984696024
-0.00253134,0.6415005415121999,2.198583632661057
-0.00253071,0.6415005415122016,2.176743210219099
-0.00253008,0.645172933670349,2.158542858184149
-0.00252945,0.645172933670349,2.14034250614919
-0.00252882,0.6488453258284949,2.125782224521215
-0.00252819,0.6415005415121999,2.107581872486265
-0.00252756,0.6415005415121999,2.085741450044315
-0.00252693,0.6378281493540524,2.071181168416355
-0.0025263,0.6378281493540507,2.049340745974399
-0.00252567,0.6415005415121999,2.027500323532449
-0.00252504,0.6378281493540507,2.005659901090499
-0.00252441,0.6378281493540507,1.991099619462532
-0.00252378,0.6378281493540507,1.980179408241549
-0.00252315,0.6378281493540507,1.961979056206599
-0.00252252,0.6378281493540507,1.943778704171641
-0.00252189,0.6378281493540507,1.918298211322711
-0.00252126,0.6415005415121999,1.90009785928774
-0.00252063,0.6378281493540507,1.885537577659774
-0.00252,0.6341557571959016,1.870977296031807
-0.00251937,0.6304833650377525,1.856417014403841
-0.00251874,0.626810972879605,1.834576591961882
-0.00251811,0.6304833650377525,1.816376239926932
-0.00251748,0.6268109728796033,1.794535817484982
-0.00251685,0.6268109728796033,1.772695395043042
-0.00251622,0.6268109728796033,1.758135113415066
-0.00251559,0.6268109728796033,1.739934761380107
-0.00251496,0.6268109728796033,1.721734409345157
-0.00251433,0.6231385807214542,1.699893986903199
-0.0025137,0.626810972879605,1.678053564461241
-0.00251307,0.6304833650377525,1.659853212426291
-0.00251244,0.6304833650377525,1.645292930798324
-0.00251181,0.6304833650377525,1.630732649170364
-0.00251118,0.6268109728796033,1.612532297135399
-0.00251055,0.6268109728796033,1.590691874693449
-0.00250992,0.6268109728796033,1.568851452251509
-0.00250929,0.619466188563305,1.550651100216541
-0.00250866,0.6157937964051559,1.528810677774582
-0.00250803,0.6157937964051559,1.510610325739632
-0.0025074,0.619466188563305,1.488769903297682
-0.00250677,0.6157937964051575,1.470569551262732
-0.00250614,0.6157937964051559,1.448729128820774
-0.00250551,0.619466188563305,1.430528776785815
-0.00250488,0.619466188563305,1.415968495157856
-0.00250425,0.6157937964051559,1.397768143122891
-0.00250362,0.6157937964051542,1.379567791087926
-0.00250299,0.6121214042470068,1.365007509459966
-0.00250236,0.6121214042470068,1.343167087018015
-0.00250173,0.6084490120888576,1.321326664576056
-0.0025011,0.6084490120888576,1.299486242134116
-0.00250047,0.6011042277725593,1.288566030913141
-0.00249984,0.6047766199307069,1.266725608471201
-0.00249921,0.6047766199307085,1.252165326843224
-0.00249858,0.6047766199307069,1.230324904401262
-0.00249795,0.6011042277725593,1.204844411552332
-0.00249732,0.5974318356144102,1.190284129924366
-0.00249669,0.5974318356144102,1.172083777889399
-0.00249606,0.5974318356144102,1.153883425854449
-0.00249543,0.6011042277725593,1.132043003412499
-0.0024948,0.5937594434562644,1.113842651377549
-0.00249417,0.5900870512981119,1.088362158528599
-0.00249354,0.5937594434562594,1.07016180649363
-0.00249291,0.5900870512981119,1.048321384051691
-0.00249228,0.5900870512981119,1.037401172830716
-0.00249165,0.5900870512981086,1.019200820795747
-0.00249102,0.5827422669818136,0.9973603983538071
-0.00249039,0.5827422669818136,0.9755199759118571
-0.00248976,0.5827422669818136,0.9536795534699171
-0.00248913,0.5864146591399628,0.9318391310279572
-0.0024885,0.5864146591399628,0.9172788493999906
-0.00248787,0.5790698748236645,0.8990784973650321
-0.00248724,0.5717250905073662,0.8808781453300738
-0.00248661,0.5717250905073629,0.8553976524811239
-0.00248598,0.5643803061910679,0.8371973004461739
-0.00248535,0.5643803061910679,0.8189969484112156
-0.00248472,0.5607079140329204,0.8044366667832554
-0.00248409,0.5570355218747697,0.7862363147482905
-0.00248346,0.5570355218747697,0.7643958923063405
-0.00248283,0.5570355218747697,0.7389153994573989
-0.0024822,0.5496907375584714,0.7243551178294323
-0.00248157,0.5496907375584698,0.7025146953874689
-0.00248094,0.5460183454003222,0.6733941321315489
-0.00248031,0.5423459532421731,0.6588338505035822
-0.00247968,0.5350011689258781,0.6369934280616422
-0.00247905,0.5203116002932783,0.6187930760266738
-0.00247842,0.5203116002932783,0.6005927239917155
-0.00247779,0.5129668159769833,0.5823923719567655
-0.00247716,0.5092944238188308,0.5532718087008239
-0.00247653,0.5056220316606767,0.542351597479844
-0.0024759,0.4946048551862343,0.5314313862588738
-0.00247527,0.4799152865536378,0.5095909638169238
-0.00247464,0.4725705022373428,0.4877505413749838
-0.00247401,0.4615533257628921,0.4659101189330239
-0.00247338,0.4468637571302955,0.4440696964910739
-0.00247275,0.4321741884977056,0.4222292740491338
-0.00247212,0.4248294041814007,0.4040289220141655
-0.00247149,0.4064674433906467,0.3858285699791973
-0.00247086,0.3881054825999093,0.3639881475372572
-0.00247023,0.3697435218091636,0.3457877955022989
-0.0024696,0.3477091688602788,0.3275874434673488
-0.00246897,0.3293472080695231,0.3093870914323822
-0.00246834,0.3146576394369265,0.2911867393974238
-0.00246771,0.2962956786461891,0.2693463169554838
-0.00246708,0.274261325697286,0.2438658241065322
-0.00246645,0.2522269727483827,0.2256654720715672
-0.00246582,0.2338650119576454,0.2111051904436072
-0.00246519,0.2118306590087505,0.1819846271876739
-0.00246456,0.1971410903761456,0.1710644159666889
-0.00246393,0.1787791295854083,0.1492239935247489
-0.0024633,0.1530723844783643,0.1237435006758072
-0.00246267,0.1383828158457744,0.1055431486408571
-0.00246204,0.1126760707387238,0.09098286701288222
-0.00246141,0.09064171778982225,0.0618623037569406
-0.00246078,0.07595214915723235,0.04366195172199055
-0.00246015,0.05391779620833751,0.02910167009402388
-0.00245952,0.03922822757573093,0.01090131805905562
-0.00245889,0.01719387462684611,-0.01093910438288445
-0.00245826,-0.008512870480197866,-0.03641959723182611
-0.00245763,-0.03054722342908269,-0.05826001967376618
-0.002457,-0.05258157637798755,-0.07646037170873445
-0.00245637,-0.06727114501058411,-0.09466072374369278
-0.00245574,-0.08930549795947895,-0.1128610757786511
-0.00245511,-0.1113398509083738,-0.1347014982206011
-0.00245448,-0.1260294195409787,-0.152901850255571
-0.00245385,-0.1443913803317161,-0.1783823431045011
-0.00245322,-0.1664257332806109,-0.1929426247324678
-0.00245259,-0.1884600862294957,-0.2038628359534378
-0.00245196,-0.2104944391784005,-0.2293433288023844
-0.00245133,-0.2325287921272954,-0.2548238216513261
-0.0024507,-0.247218360759892,-0.2730241736862845
-0.00245007,-0.2655803215506377,-0.2948645961282345
-0.00244944,-0.2912870666576899,-0.3167050185701911
-0.00244881,-0.3096490274484273,-0.3312653001981511
-0.00244818,-0.3316833803973222,-0.3494656522331094
-0.00244755,-0.3500453411880596,-0.3713060746750495
-0.00244692,-0.3647349098206644,-0.3931464971170094
-0.00244629,-0.3867692627695593,-0.4113468491519678
-0.00244566,-0.4124760078765916,-0.4331872715939079
-0.00244503,-0.430837968667349,-0.4477475532218844
-0.0024444,-0.4491999294581047,-0.4695879756638444
-0.00244377,-0.4712342824069895,-0.4914283981057844
-0.00244314,-0.4932686353558843,-0.5096287501407428
-0.00244251,-0.5116305961466218,-0.5351092429896729
-0.00244188,-0.5299925569373758,-0.5533095950246427
-0.00244125,-0.5483545177281215,-0.571509947059601
-0.00244062,-0.5667164785188589,-0.582430158280571
-0.00243999,-0.5850784393096129,-0.6042705807225262
-0.00243936,-0.6107851844166635,-0.6297510735714793
-0.00243873,-0.6254747530492535,-0.6552315664204094
-0.0024381,-0.6438367138399992,-0.6661517776413843
-0.00243747,-0.6695434589470315,-0.6879922000833246
-0.00243684,-0.6842330275796397,-0.7025524817113011
-0.00243621,-0.7025949883703854,-0.7243929041532511
-0.00243558,-0.7246293413192703,-0.7462333265951911
-0.00243495,-0.746663694268175,-0.768073749037151
-0.00243432,-0.7760428315333748,-0.7862741010721194
-0.00243369,-0.7907324001659647,-0.8081145235140594
-0.00243306,-0.8090943609567104,-0.8263148755490177
-0.00243243,-0.823783929589317,-0.8372350867700042
-0.0024318,-0.8458182825382018,-0.8627155796189345
-0.00243117,-0.8678526354870967,-0.8845560020608845
-0.00243054,-0.8898869884359816,-0.9027563540958344
-0.00242991,-0.9082489492267373,-0.9209567061308011
-0.00242928,-0.9266109100174913,-0.9391570581657677
-0.00242865,-0.9449728708082287,-0.9573574102007179
-0.00242802,-0.9670072237571234,-0.9791978326426678
-0.00242739,-0.9816967923897301,-1.004678325491616
-0.00242676,-1.003731145338615,-1.019238607119576
-0.00242613,-1.022093106129361,-1.033798888747543
-0.0024255,-1.05147224339454,-1.055639311189483
-0.00242487,-1.062489419869001,-1.070199592817459
-0.00242424,-1.077178988501608,-1.088399944852426
-0.00242361,-1.099213341450493,-1.106600296887376
-0.00242298,-1.124920086557536,-1.132080789736318
-0.00242235,-1.139609655190142,-1.153921212178278
-0.00242172,-1.157971615980879,-1.175761634620218
-0.00242109,-1.176333576771625,-1.190321916248184
-0.00242046,-1.198367929720509,-1.212162338690124
-0.00241983,-1.220402282669414,-1.234002761132084
-0.0024192,-1.23876424346016,-1.248563042760051
-0.00241857,-1.257126204250905,-1.270403465202001
-0.00241794,-1.271815772883502,-1.292243887643951
-0.00241731,-1.290177733674256,-1.310444239678916
-0.00241668,-1.308539694464993,-1.325004521306876
-0.00241605,-1.330574047413888,-1.343204873341834
-0.00241542,-1.352608400362773,-1.368685366190765
-0.00241479,-1.370970361153529,-1.386885718225734
-0.00241416,-1.393004714102424,-1.408726140667684
-0.00241353,-1.411366674893169,-1.434206633516626
-0.0024129,-1.426056243525766,-1.445126844737601
-0.00241227,-1.448090596474669,-1.466967267179561
-0.00241164,-1.466452557265407,-1.488807689621501
-0.00241101,-1.488486910214301,-1.507008041656459
-0.00241038,-1.510521263163186,-1.521568323284419
-0.00240975,-1.525210831795793,-1.539768675319384
-0.00240912,-1.539900400428389,-1.554328956947351
-0.00240849,-1.558262361219127,-1.572529308982301
-0.00240786,-1.576624322009881,-1.590729661017268
-0.00240723,-1.598658674958784,-1.608930013052236
-0.0024066,-1.617020635749521,-1.630770435494176
-0.00240597,-1.639054988698416,-1.648970787529134
-0.00240534,-1.657416949489153,-1.667171139564084
-0.00240471,-1.668434125963609,-1.685371491599051
-0.00240408,-1.694140871070653,-1.703571843634009
-0.00240345,-1.716175224019538,-1.721772195668959
-0.00240282,-1.734537184810294,-1.747252688517909
-0.00240219,-1.752899145601049,-1.761812970145886
-0.00240156,-1.774933498549934,-1.783653392587826
-0.00240093,-1.785950675024382,-1.801853744622784
-0.0024003,-1.804312635815119,-1.820054096657735
-0.00239967,-1.822674596605873,-1.830974307878718
-0.00239904,-1.841036557396619,-1.852814730320668
-0.00239841,-1.866743302503651,-1.878295223169598
-0.00239778,-1.888777655452558,-1.900135645611559
-0.00239715,-1.899794831927013,-1.918335997646524
-0.00239652,-1.918156792717751,-1.932896279274484
-0.00239589,-1.936518753508496,-1.951096631309443
-0.00239526,-1.951208322141103,-1.965656912937418
-0.00239463,-1.973242675089988,-1.983857264972368
-0.002394,-1.995277028038883,-2.005697687414318
-0.00239337,-2.009966596671472,-2.023898039449268
-0.00239274,-2.020983773145927,-2.038458321077243
-0.00239211,-2.043018126094831,-2.05665867311221
-0.00239148,-2.065052479043716,-2.074859025147159
-0.00239085,-2.083414439834462,-2.093059377182118
-0.00239022,-2.105448792783365,-2.114899799624079
-0.00238959,-2.123810753574102,-2.140380292473009
-0.00238896,-2.142172714364848,-2.144020362880001
-0.00238833,-2.156862282997438,-2.162220714914951
-0.0023877,-2.17889663594634,-2.180421066949918
-0.00238707,-2.197258596737092,-2.205901559798868
-0.00238644,-2.211948165369682,-2.224101911833818
-0.00238581,-2.230310126160427,-2.242302263868776
-0.00238518,-2.237654910476734,-2.253222475089761
-0.00238455,-2.256016871267471,-2.275062897531701
-0.00238392,-2.278051224216366,-2.285983108752676
-0.00238329,-2.300085577165251,-2.300543390380636
-0.00238266,-2.322119930114156,-2.326023883229584
-0.00238203,-2.336809498746752,-2.347864305671535
-0.0023814,-2.351499067379349,-2.355144446485518
-0.00238077,-2.369861028170095,-2.369704728113485
-0.00238014,-2.388222988960849,-2.391545150555443
-0.00237951,-2.406584949751586,-2.409745502590393
-0.00237888,-2.424946910542332,-2.431585925032343
-0.00237825,-2.443308871333069,-2.446146206660303
-0.00237762,-2.454326047807525,-2.467986629102259
-0.00237699,-2.469015616440121,-2.482546910730226
-0.00237636,-2.494722361547154,-2.500747262765176
-0.00237573,-2.509411930179762,-2.515307544393151
-0.0023751,-2.527773890970513,-2.533507896428118
-0.00237447,-2.538791067444955,-2.551708248463068
-0.00237384,-2.557153028235701,-2.569908600498026
-0.00237321,-2.571842596868291,-2.580828811718996
-0.00237258,-2.586532165500894,-2.602669234160951
-0.00237195,-2.608566518449789,-2.620869586195909
-0.00237132,-2.626928479240526,-2.64271000863785
-0.00237069,-2.64529044003128,-2.657270290265826
-0.00237006,-2.663652400822033,-2.675470642300791
-0.00236943,-2.678341969454622,-2.690030923928751
-0.0023688,-2.696703930245368,-2.70823127596371
-0.00236817,-2.715065891036105,-2.72643162799866
-0.00236754,-2.729755459668711,-2.740991909626635
-0.00236691,-2.744445028301307,-2.755552191254601
-0.00236628,-2.766479381250192,-2.770112472882561
-0.00236565,-2.784841342040948,-2.784672754510535
-0.00236502,-2.792186126357253,-2.788312824917538
-0.00236439,-2.806875694989842,-2.813793317766468
-0.00236376,-2.825237655780588,-2.831993669801426
-0.00236313,-2.847272008729493,-2.850194021836394
-0.0023625,-2.869306361678378,-2.872034444278334
-0.00236187,-2.883995930310975,-2.886594725906301
-0.00236124,-2.891340714627269,-2.901155007534261
-0.00236061,-2.913375067576168,-2.915715289162235
-0.00235998,-2.93173702836692,-2.926635500383218
-0.00235935,-2.94642659699951,-2.944835852418168
-0.00235872,-2.961116165632106,-2.963036204453126
-0.00235809,-2.97580573426471,-2.984876626895083
-0.00235746,-2.990495302897299,-2.999436908523043
-0.00235683,-3.005184871529896,-3.010357119744018
-0.0023562,-3.023546832320633,-3.028557471778968
-0.00235557,-3.038236400953238,-3.046757823813934
-0.00235494,-3.056598361743992,-3.061318105441909
-0.00235431,-3.07496032253473,-3.07951845747686
-0.00235368,-3.082305106851028,-3.094078739104826
-0.00235305,-3.096994675483629,-3.112279091139793
-0.00235242,-3.108011851958072,-3.130479443174743
-0.00235179,-3.126373812748818,-3.141399654395718
-0.00235116,-3.144735773539555,-3.155959936023678
-0.00235053,-3.166770126488458,-3.174160288058643
-0.0023499,-3.177787302962905,-3.192360640093601
-0.00234927,-3.185132087279204,-3.203280851314576
-0.00234864,-3.203494048069949,-3.214201062535551
-0.00234801,-3.218183616702555,-3.232401414570516
-0.00234738,-3.236545577493292,-3.246961696198476
-0.00234675,-3.251235146125888,-3.265162048233435
-0.00234612,-3.269597106916625,-3.283362400268385
-0.00234549,-3.284286675549231,-3.29792268189636
-0.00234486,-3.302648636339976,-3.312482963524326
-0.00234423,-3.313665812814424,-3.323403174745301
-0.0023436,-3.332027773605169,-3.337963456373268
-0.00234297,-3.346717342237773,-3.352523738001243
-0.00234234,-3.361406910870362,-3.370724090036193
-0.00234171,-3.376096479502959,-3.374364160443184
-0.00234108,-3.390786048135549,-3.392564512478134
-0.00234045,-3.409148008926302,-3.410764864513101
-0.00233982,-3.427509969717047,-3.425325146141068
-0.00233919,-3.434854754033342,-3.443525498176017
-0.00233856,-3.445871930507793,-3.458085779803993
-0.00233793,-3.460561499140396,-3.472646061431966
-0.0023373,-3.475251067772986,-3.487206343059926
-0.00233667,-3.482595852089284,-3.498126554280901
-0.00233604,-3.497285420721874,-3.509046765501871
-0.00233541,-3.522992165828925,-3.523607047129843
-0.00233478,-3.534009342303372,-3.541807399164801
