Spring 2022/Electornics 1 Lab/lab 3/PreLab/lab3_prelab_figure2_10kresistor_data.csv

#Digilent WaveForms Oscilloscope Acquisition
#Device Name: Discovery2
#Serial Number: SN:210321B0DF82
#Date Time: 2022-02-28 16:46:08.746
#Sample rate: 4e+06Hz
#Samples: 8192
#Trigger: Source: Channel 1 Type: Edge Condition: Rising Level: 0 V Hyst.: Auto HoldOff: 100 ns
#Channel 1: Range: 1 V/div Offset: 0 V Attenuation: 1 X Sample Mode: Average
#Wavegen Channel 1: Running
#Mode: Simple
#Type: Sine
#Frequency: 1 kHz
#Period: 1 ms
#Amplitude: 5 V
#Offset: 0 V
#Symmetry: 50 %
#Phase: 0 °

Time (s),Channel 1 (V)
-0.0005238749999999999,0.4578809336047429
-0.0005236249999999999,0.4505361492884447
-0.0005233750000000001,0.4505361492884447
-0.000523125,0.4505361492884447
-0.000522875,0.4468637571302955
-0.000522625,0.4468637571302955
-0.0005223749999999999,0.4505361492884447
-0.0005221249999999999,0.4431913649721464
-0.0005218749999999999,0.4431913649721464
-0.0005216250000000001,0.4431913649721464
-0.000521375,0.4431913649721464
-0.000521125,0.4395189728139972
-0.000520875,0.4431913649721464
-0.0005206249999999999,0.4358465806558481
-0.0005203749999999999,0.4321741884976973
-0.0005201250000000001,0.4285017963395515
-0.000519875,0.4285017963395498
-0.000519625,0.4248294041814007
-0.000519375,0.4285017963395498
-0.0005191249999999999,0.4248294041814007
-0.0005188749999999999,0.4211570120232515
-0.0005186249999999999,0.4211570120232515
-0.0005183750000000001,0.4211570120232515
-0.000518125,0.417484619865104
-0.000517875,0.4211570120232515
-0.000517625,0.4174846198651024
-0.0005173749999999999,0.4138122277069533
-0.0005171249999999999,0.4138122277069516
-0.0005168749999999999,0.4101398355488041
-0.000516625,0.4101398355488041
-0.000516375,0.406467443390655
-0.000516125,0.4027950512325058
-0.0005158749999999999,0.406467443390655
-0.0005156249999999999,0.4027950512325041
-0.0005153749999999999,0.3991226590743533
-0.0005151250000000001,0.3917778747580618
-0.000514875,0.3917778747580584
-0.000514625,0.3844330904417602
-0.000514375,0.3770883061254618
-0.0005141249999999999,0.3734159139673127
-0.0005138749999999999,0.3734159139673127
-0.0005136249999999999,0.3734159139673111
-0.0005133750000000001,0.3697435218091653
-0.000513125,0.3660711296510145
-0.000512875,0.3587263453347161
-0.000512625,0.3587263453347161
-0.0005123749999999999,0.3513815610184179
-0.0005121249999999999,0.3550539531765654
-0.0005118750000000001,0.3513815610184196
-0.000511625,0.3477091688602704
-0.000511375,0.3440367767021196
-0.000511125,0.3403643845439704
-0.0005108749999999999,0.3293472080695231
-0.0005106249999999999,0.3146576394369248
-0.0005103749999999999,0.3109852472787757
-0.0005101250000000001,0.3073128551206298
-0.000509875,0.303640462962479
-0.000509625,0.2962956786461808
-0.000509375,0.2889508943298825
-0.0005091249999999999,0.2816061100135842
-0.0005088749999999999,0.274261325697281
-0.0005086250000000001,0.2632441492228435
-0.000508375,0.2632441492228385
-0.000508125,0.2558993649065402
-0.000507875,0.2522269727483911
-0.0005076249999999999,0.2522269727483911
-0.0005073749999999999,0.2448821884320895
-0.0005071249999999999,0.2375374041157895
-0.0005068750000000001,0.2265202276413521
-0.000506625,0.2155030511668997
-0.000506375,0.2081582668506014
-0.000506125,0.197141090376154
-0.0005058749999999999,0.1897963060598557
-0.0005056249999999999,0.1787791295854049
-0.0005053750000000001,0.1714343452691133
-0.000505125,0.1640895609528151
-0.000504875,0.1530723844783643
-0.000504625,0.145727600162066
-0.0005043749999999999,0.1420552080039169
-0.0005041249999999999,0.1347104236876136
-0.0005038749999999999,0.1236932472131695
-0.0005036250000000001,0.1200208550550237
-0.000503375,0.1126760707387238
-0.000503125,0.1053312864224255
-0.000502875,0.09798650210612719
-0.0005026249999999999,0.09431410994797805
-0.0005023749999999999,0.07962454131537815
-0.0005021250000000001,0.07227975699908656
-0.000501875,0.06493497268278828
-0.000501625,0.05759018836648665
-0.000501375,0.05024540405018837
-0.0005011249999999999,0.0429006197338901
-0.0005008749999999999,0.03555583541758848
-0.0005006249999999999,0.02821105110128852
-0.0005003750000000001,0.01719387462685112
-0.000500125,0.009849090310547834
-0.000499875,-0.001168086163899587
-0.000499625,-0.004840478322048727
-0.0004993749999999999,-0.01218526263834701
-0.0004991249999999999,-0.01953004695464863
-0.0004988750000000001,-0.02687483127094023
-0.000498625,-0.03789200774538598
-0.000498375,-0.04156439990354013
-0.000498125,-0.05258157637798755
-0.0004978749999999999,-0.06359875285243496
-0.0004976249999999999,-0.06727114501058912
-0.0004973749999999999,-0.07828832148503487
-0.0004971250000000001,-0.08563310580132646
-0.000496875,-0.0929778901176281
-0.000496625,-0.1003226744339264
-0.000496375,-0.1076674587502247
-0.0004961249999999999,-0.1150122430665229
-0.0004958749999999999,-0.1223570273828246
-0.0004956250000000001,-0.1297018116991162
-0.000495375,-0.1370465960154144
-0.000495125,-0.1443913803317161
-0.000494875,-0.1517361646480143
-0.0004946249999999999,-0.1554085568061634
-0.0004943749999999999,-0.1664257332806126
-0.0004941249999999999,-0.170098125438765
-0.0004938750000000001,-0.1811153019132025
-0.000493625,-0.1884600862295024
-0.000493375,-0.195804870545804
-0.000493125,-0.2104944391784005
-0.0004928749999999999,-0.2178392234946989
-0.0004926249999999999,-0.2251840078110021
-0.0004923749999999999,-0.2362011842854479
-0.000492125,-0.2435459686017395
-0.000491875,-0.247218360759892
-0.000491625,-0.2582355372343394
-0.0004913749999999999,-0.2655803215506377
-0.0004911249999999999,-0.2729251058669359
-0.0004908749999999999,-0.2839422823413867
-0.0004906250000000001,-0.2912870666576783
-0.000490375,-0.2986318509739766
-0.000490125,-0.3023042431321291
-0.000489875,-0.3133214196065765
-0.0004896249999999999,-0.3169938117647256
-0.0004893749999999999,-0.3280109882391797
-0.0004891249999999999,-0.3427005568717713
-0.0004888750000000001,-0.3463729490299171
-0.000488625,-0.3573901255043662
-0.000488375,-0.3647349098206644
-0.000488125,-0.3684073019788136
-0.0004878749999999999,-0.3757520862951119
-0.0004876249999999999,-0.3794244784532643
-0.0004873750000000001,-0.386769262769556
-0.000487125,-0.3941140470858542
-0.000486875,-0.405131223560305
-0.000486625,-0.4161484000347524
-0.0004863749999999999,-0.4198207921929015
-0.0004861249999999999,-0.4308379686673506
-0.0004858749999999999,-0.4345103608255048
-0.0004856250000000001,-0.449199929458088
-0.000485375,-0.4602171059325421
-0.000485125,-0.4675618902488404
-0.000484875,-0.4749066745651386
-0.0004846249999999999,-0.4822514588814369
-0.0004843749999999999,-0.4895962431977352
-0.0004841250000000001,-0.4895962431977352
-0.000483875,-0.5042858118303252
-0.000483625,-0.5116305961466301
-0.000483375,-0.5153029883047793
-0.0004831249999999999,-0.5226477726210775
-0.0004828749999999999,-0.5263201647792316
-0.0004826249999999999,-0.5373373412536774
-0.0004823750000000001,-0.544682125569969
-0.000482125,-0.5556993020444198
-0.000481875,-0.5667164785188672
-0.000481625,-0.5740612628351655
-0.0004813749999999999,-0.5887508314677621
-0.0004811249999999999,-0.5924232236259145
-0.0004808750000000001,-0.5997680079422061
-0.000480625,-0.6107851844166519
-0.000480375,-0.614457576574806
-0.000480125,-0.614457576574806
-0.0004798749999999999,-0.6254747530492535
-0.0004796249999999999,-0.6364919295237025
-0.0004793749999999999,-0.6401643216818567
-0.0004791250000000001,-0.6548538903144399
-0.000478875,-0.6585262824725957
-0.000478625,-0.665871066788894
-0.000478375,-0.6732158511051922
-0.0004781249999999999,-0.6732158511051922
-0.0004778749999999999,-0.6879054197377922
-0.0004776250000000001,-0.6952502040540838
-0.000477375,-0.702594988370382
-0.000477125,-0.7136121648448328
-0.000476875,-0.7209569491611311
-0.0004766249999999999,-0.7283017334774293
-0.000476375,-0.7393189099518768
-0.000476125,-0.746663694268175
-0.000475875,-0.7503360864263242
-0.0004756249999999999,-0.7613532629007717
-0.000475375,-0.7650256550589207
-0.000475125,-0.7760428315333682
-0.0004748749999999999,-0.7833876158496664
-0.000474625,-0.7907324001659647
-0.000474375,-0.7980771844822631
-0.0004741249999999999,-0.8017495766404121
-0.000473875,-0.8127667531148596
-0.000473625,-0.823783929589307
-0.0004733749999999999,-0.8274563217474561
-0.000473125,-0.8348011060637545
-0.000472875,-0.8458182825382018
-0.000472625,-0.8531630668545002
-0.0004723749999999999,-0.8568354590126492
-0.000472125,-0.8605078511707984
-0.000471875,-0.8751974198033949
-0.0004716249999999999,-0.8788698119615441
-0.000471375,-0.8898869884359916
-0.000471125,-0.8972317727522898
-0.0004708749999999999,-0.9082489492267373
-0.000470625,-0.9192661257011846
-0.000470375,-0.926610910017483
-0.0004701249999999999,-0.9339556943337812
-0.000469875,-0.9376280864919303
-0.000469625,-0.9486452629663777
-0.000469375,-0.9596624394408252
-0.0004691249999999999,-0.9670072237571234
-0.000468875,-0.9816967923897201
-0.000468625,-0.9890415767060183
-0.0004683749999999999,-0.9927139688641674
-0.000468125,-1.003731145338615
-0.000467875,-1.007403537496764
-0.0004676249999999999,-1.014748321813062
-0.000467375,-1.014748321813062
-0.000467125,-1.02576549828751
-0.000466875,-1.036782674761957
-0.000466625,-1.040455066920106
-0.000466375,-1.044127459078255
-0.000466125,-1.058817027710852
-0.0004658749999999999,-1.062489419869001
-0.000465625,-1.073506596343448
-0.000465375,-1.080851380659747
-0.0004651249999999999,-1.088196164976045
-0.000464875,-1.095540949292343
-0.000464625,-1.102885733608642
-0.0004643749999999999,-1.106558125766791
-0.000464125,-1.113902910083089
-0.000463875,-1.121247694399387
-0.000463625,-1.132264870873835
-0.0004633749999999999,-1.135937263031984
-0.000463125,-1.143282047348282
-0.000462875,-1.15429922382273
-0.0004626249999999999,-1.157971615980879
-0.000462375,-1.165316400297177
-0.000462125,-1.168988792455326
-0.0004618749999999999,-1.183678361087923
-0.000461625,-1.19469553756237
-0.000461375,-1.202040321878668
-0.0004611249999999999,-1.205712714036818
-0.000460875,-1.220402282669414
-0.000460625,-1.220402282669414
-0.000460375,-1.231419459143862
-0.0004601249999999999,-1.23876424346016
-0.000459875,-1.246109027776458
-0.000459625,-1.249781419934607
-0.0004593749999999999,-1.260798596409055
-0.000459125,-1.268143380725353
-0.000458875,-1.28283294935795
-0.0004586249999999999,-1.286505341516099
-0.000458375,-1.290177733674248
-0.000458125,-1.293850125832397
-0.0004578749999999999,-1.297522517990546
-0.000457625,-1.304867302306844
-0.000457375,-1.319556870939441
-0.000457125,-1.326901655255739
-0.0004568749999999999,-1.337918831730187
-0.000456625,-1.345263616046485
-0.000456375,-1.348936008204634
-0.0004561249999999999,-1.352608400362783
-0.000455875,-1.363625576837231
-0.000455625,-1.370970361153529
-0.0004553749999999999,-1.381987537627976
-0.000455125,-1.389332321944275
-0.000454875,-1.396677106260573
-0.000454625,-1.40769428273502
-0.000454375,-1.418711459209468
-0.000454125,-1.426056243525766
-0.000453875,-1.426056243525766
-0.0004536249999999999,-1.433401027842064
-0.000453375,-1.440745812158363
-0.000453125,-1.45176298863281
-0.0004528749999999999,-1.455435380790959
-0.000452625,-1.462780165107257
-0.000452375,-1.470124949423556
-0.0004521249999999999,-1.477469733739854
-0.000451875,-1.481142125898003
-0.000451625,-1.49215930237245
-0.000451375,-1.503176478846898
-0.0004511249999999999,-1.506848871005047
-0.000450875,-1.514193655321345
-0.000450625,-1.514193655321345
-0.0004503749999999999,-1.525210831795793
-0.000450125,-1.539900400428389
-0.000449875,-1.547245184744688
-0.0004496249999999999,-1.554589969060986
-0.000449375,-1.558262361219135
-0.000449125,-1.569279537693582
-0.0004488749999999999,-1.58029671416803
-0.000448625,-1.58029671416803
-0.000448375,-1.587641498484328
-0.000448125,-1.598658674958775
-0.0004478749999999999,-1.609675851433223
-0.000447625,-1.613348243591372
-0.000447375,-1.62069302790767
-0.0004471249999999999,-1.628037812223969
-0.000446875,-1.631710204382118
-0.000446625,-1.639054988698416
-0.0004463749999999999,-1.650072165172864
-0.000446125,-1.653744557331013
-0.000445875,-1.668434125963609
-0.0004456249999999999,-1.675778910279907
-0.000445375,-1.679451302438057
-0.000445125,-1.690468478912504
-0.000444875,-1.694140871070653
-0.0004446249999999999,-1.705158047545101
-0.000444375,-1.705158047545101
-0.000444125,-1.712502831861399
-0.0004438749999999999,-1.716175224019548
-0.000443625,-1.730864792652145
-0.000443375,-1.741881969126592
-0.0004431249999999999,-1.74922675344289
-0.000442875,-1.756571537759189
-0.000442625,-1.763916322075487
-0.000442375,-1.767588714233636
-0.000442125,-1.774933498549934
-0.000441875,-1.782278282866232
-0.000441625,-1.789623067182531
-0.0004413749999999999,-1.796967851498829
-0.000441125,-1.807985027973277
-0.000440875,-1.815329812289575
-0.0004406249999999999,-1.819002204447724
-0.000440375,-1.830019380922171
-0.000440125,-1.83736416523847
-0.0004398749999999999,-1.844708949554768
-0.000439625,-1.848381341712917
-0.000439375,-1.859398518187364
-0.000439125,-1.870415694661812
-0.0004388749999999999,-1.874088086819961
-0.000438625,-1.881432871136259
-0.000438375,-1.888777655452558
-0.0004381249999999999,-1.899794831927005
-0.000437875,-1.903467224085154
-0.000437625,-1.914484400559602
-0.0004373749999999999,-1.918156792717751
-0.000437125,-1.925501577034049
-0.000436875,-1.932846361350347
-0.0004366249999999999,-1.936518753508496
-0.000436375,-1.943863537824795
-0.000436125,-1.951208322141093
-0.000435875,-1.954880714299242
-0.0004356249999999999,-1.962225498615541
-0.000435375,-1.973242675089988
-0.000435125,-1.980587459406286
-0.0004348749999999999,-1.991604635880734
-0.000434625,-1.995277028038883
-0.000434375,-2.00629420451333
-0.0004341249999999999,-2.009966596671479
-0.000433875,-2.020983773145927
-0.000433625,-2.024656165304076
-0.0004333749999999999,-2.035673341778523
-0.000433125,-2.043018126094821
-0.000432875,-2.04669051825297
-0.000432625,-2.054035302569269
-0.0004323749999999999,-2.057707694727418
-0.000432125,-2.061380086885567
-0.000431875,-2.065052479043716
-0.0004316249999999999,-2.079742047676313
-0.000431375,-2.083414439834462
-0.000431125,-2.09075922415076
-0.0004308749999999999,-2.094431616308909
-0.000430625,-2.098104008467058
-0.000430375,-2.105448792783357
-0.000430125,-2.116465969257804
-0.000429875,-2.127483145732251
-0.000429625,-2.138500322206699
-0.000429375,-2.138500322206699
-0.0004291249999999999,-2.149517498681146
-0.000428875,-2.160534675155594
-0.000428625,-2.160534675155594
-0.0004283749999999999,-2.167879459471892
-0.000428125,-2.182569028104488
-0.000427875,-2.186241420262638
-0.0004276249999999999,-2.197258596737085
-0.000427375,-2.204603381053384
-0.000427125,-2.211948165369682
-0.000426875,-2.215620557527831
-0.0004266249999999999,-2.222965341844129
-0.000426375,-2.230310126160427
-0.000426125,-2.233982518318577
-0.0004258749999999999,-2.241327302634875
-0.000425625,-2.244999694793024
-0.000425375,-2.256016871267471
-0.0004251249999999999,-2.26336165558377
-0.000424875,-2.267034047741919
-0.000424625,-2.270706439900068
-0.0004243749999999999,-2.285396008532664
-0.000424125,-2.285396008532664
-0.000423875,-2.296413185007112
-0.000423625,-2.30375796932341
-0.0004233749999999999,-2.314775145797858
-0.000423125,-2.322119930114156
-0.000422875,-2.322119930114156
-0.0004226249999999999,-2.329464714430454
-0.000422375,-2.340481890904901
-0.000422125,-2.344154283063051
-0.0004218749999999999,-2.355171459537498
-0.000421625,-2.366188636011946
-0.000421375,-2.373533420328244
-0.0004211249999999999,-2.377205812486393
-0.000420875,-2.384550596802691
-0.000420625,-2.388222988960841
-0.000420375,-2.388222988960841
-0.0004201249999999999,-2.399240165435288
-0.000419875,-2.402912557593437
-0.000419625,-2.410257341909735
-0.0004193749999999999,-2.424946910542332
-0.000419125,-2.428619302700481
-0.000418875,-2.435964087016779
-0.0004186249999999999,-2.446981263491227
-0.000418375,-2.450653655649376
-0.000418125,-2.461670832123823
-0.000417875,-2.469015616440121
-0.0004176249999999999,-2.47636040075642
-0.000417375,-2.483705185072718
-0.000417125,-2.491049969389016
-0.0004168749999999999,-2.494722361547165
-0.000416625,-2.494722361547165
-0.000416375,-2.502067145863464
-0.0004161249999999999,-2.509411930179762
-0.000415875,-2.516756714496061
-0.000415625,-2.520429106654209
-0.0004153749999999999,-2.531446283128657
-0.000415125,-2.531446283128657
-0.000414875,-2.542463459603104
-0.000414625,-2.549808243919403
-0.0004143749999999999,-2.553480636077552
-0.000414125,-2.56082542039385
-0.000413875,-2.568170204710148
-0.0004136249999999999,-2.575514989026447
-0.000413375,-2.579187381184596
-0.000413125,-2.586532165500894
-0.0004128749999999999,-2.593876949817192
-0.000412625,-2.60489412629164
-0.000412375,-2.612238910607938
-0.0004121249999999999,-2.619583694924236
-0.000411875,-2.623256087082385
-0.000411625,-2.626928479240535
-0.000411375,-2.634273263556833
-0.0004111249999999999,-2.641618047873131
-0.000410875,-2.64529044003128
-0.000410625,-2.656307616505728
-0.0004103749999999999,-2.659980008663877
-0.000410125,-2.670997185138324
-0.000409875,-2.678341969454622
-0.0004096249999999999,-2.685686753770921
-0.000409375,-2.693031538087219
-0.000409125,-2.696703930245368
-0.000408875,-2.700376322403518
-0.000408625,-2.707721106719815
-0.000408375,-2.715065891036114
-0.000408125,-2.718738283194263
-0.0004078749999999999,-2.729755459668711
-0.000407625,-2.737100243985009
-0.000407375,-2.737100243985009
-0.0004071249999999999,-2.748117420459456
-0.000406875,-2.751789812617605
-0.000406625,-2.755462204775755
-0.0004063749999999999,-2.766479381250202
-0.000406125,-2.777496557724649
-0.000405875,-2.781168949882798
-0.000405625,-2.788513734199097
-0.0004053749999999999,-2.795858518515395
-0.000405125,-2.806875694989842
-0.000404875,-2.814220479306141
-0.0004046249999999999,-2.814220479306141
-0.000404375,-2.814220479306141
-0.000404125,-2.828910047938737
-0.0004038749999999999,-2.832582440096886
-0.000403625,-2.839927224413185
-0.000403375,-2.850944400887632
-0.0004031249999999999,-2.861961577362079
-0.000402875,-2.865633969520229
-0.000402625,-2.869306361678378
-0.000402375,-2.880323538152825
-0.0004021249999999999,-2.880323538152825
-0.000401875,-2.887668322469124
-0.000401625,-2.898685498943571
-0.0004013749999999999,-2.898685498943571
-0.000401125,-2.906030283259869
-0.000400875,-2.906030283259869
-0.0004006249999999999,-2.913375067576168
-0.000400375,-2.924392244050615
-0.000400125,-2.928064636208764
-0.0003998749999999999,-2.939081812683212
-0.000399625,-2.939081812683212
-0.000399375,-2.942754204841361
-0.000399125,-2.957443773473957
-0.0003988749999999999,-2.961116165632106
-0.000398625,-2.961116165632106
-0.000398375,-2.968460949948405
-0.0003981249999999999,-2.975805734264703
-0.000397875,-2.983150518581001
-0.000397625,-2.994167695055449
-0.0003973749999999999,-3.001512479371747
-0.000397125,-3.008857263688045
-0.000396875,-3.016202048004343
-0.000396625,-3.016202048004343
-0.000396375,-3.016202048004343
-0.000396125,-3.019874440162492
-0.000395875,-3.027219224478791
-0.0003956249999999999,-3.038236400953238
-0.000395375,-3.038236400953238
-0.000395125,-3.049253577427686
-0.0003948749999999999,-3.056598361743984
-0.000394625,-3.063943146060282
-0.000394375,-3.067615538218432
-0.0003941249999999999,-3.07496032253473
-0.000393875,-3.082305106851028
-0.000393625,-3.085977499009177
-0.000393375,-3.093322283325475
-0.0003931249999999999,-3.100667067641774
-0.000392875,-3.104339459799923
-0.000392625,-3.108011851958072
-0.0003923749999999999,-3.119029028432519
-0.000392125,-3.122701420590669
-0.000391875,-3.130046204906967
-0.0003916249999999999,-3.137390989223265
-0.000391375,-3.144735773539563
-0.000391125,-3.148408165697712
-0.0003908749999999999,-3.15942534217216
-0.000390625,-3.163097734330309
-0.000390375,-3.170442518646607
-0.000390125,-3.177787302962905
-0.0003898749999999999,-3.181459695121055
-0.000389625,-3.188804479437353
-0.000389375,-3.196149263753651
-0.0003891249999999999,-3.1998216559118
-0.000388875,-3.203494048069949
