Spring 2022/Electornics 1 Lab/lab 3/PreLab/lab3_prelab_figure2_1kresistor_D1_with_Vin_data.csv

#Digilent WaveForms Oscilloscope Acquisition
#Device Name: Discovery2
#Serial Number: SN:210321B0DF82
#Date Time: 2022-02-28 21:34:40.889
#Sample rate: 1.5873e+06Hz
#Samples: 8192
#Trigger: Source: Channel 1 Type: Edge Condition: Rising Level: -1.27837 V Hyst.: Auto HoldOff: 100 ns
#Channel 1: Range: 5 V/div Offset: 0 V Attenuation: 1 X Sample Mode: Average
#Channel 2: Range: 5 V/div Offset: 0 V Attenuation: 1 X Sample Mode: Average
#Wavegen Channel 1: Running
#Mode: Simple
#Type: Sine
#Frequency: 1 kHz
#Period: 1 ms
#Amplitude: 5 V
#Offset: 0 V
#Symmetry: 50 %
#Phase: 0 °

Time (s),Channel 1 (V),Channel 2 (V)
-0.002579976,0.6892416395681387,3.45076785266619
-0.002579346,0.6892416395681387,3.43256750063124
-0.002578716,0.6855692474099896,3.414367148596273
-0.002578086,0.6929140317262862,3.403446937375292
-0.002577456,0.6892416395681387,3.388886655747332
-0.002576826,0.6855692474099896,3.374326374119365
-0.002576196,0.6818968552518421,3.367046233305385
-0.002575566,0.6818968552518404,3.352485951677415
-0.002574936,0.6855692474099896,3.337925670049449
-0.002574306,0.6818968552518421,3.319725318014499
-0.002573676,0.6855692474099896,3.305165036386524
-0.002573046,0.6855692474099896,3.290604754758549
-0.002572416,0.6855692474099896,3.272404402723599
-0.002571786,0.6855692474099896,3.25420405068864
-0.002571156,0.6855692474099896,3.243283839467657
-0.002570526,0.6855692474099896,3.225083487432707
-0.002569896,0.6855692474099896,3.21052320580474
-0.002569266,0.6855692474099896,3.19232285376979
-0.002568636,0.6818968552518404,3.177762572141815
-0.002568006,0.6855692474099879,3.166842360920835
-0.002567376,0.6818968552518404,3.155922149699865
-0.002566746,0.6782244630936913,3.137721797664907
-0.002566116,0.6818968552518404,3.119521445629942
-0.002565486,0.6818968552518404,3.104961164001982
-0.002564856,0.6782244630936913,3.086760811967024
-0.002564226,0.6818968552518387,3.072200530339063
-0.002563596,0.6782244630936913,3.05764024871109
-0.002562966,0.678224463093693,3.039439896676125
-0.002562336,0.6818968552518404,3.024879615048165
-0.002561706,0.6782244630936913,3.006679263013207
-0.002561076,0.6782244630936913,2.984838840571255
-0.002560446,0.6782244630936913,2.981198770164265
-0.002559816,0.6745520709355421,2.966638488536299
-0.002559186,0.6818968552518371,2.948438136501349
-0.002558556,0.6782244630936913,2.930237784466382
-0.002557926,0.6745520709355421,2.912037432431424
-0.002557296,0.6745520709355421,2.897477150803457
-0.002556666,0.6782244630936913,2.88291686917549
-0.002556036,0.6818968552518387,2.871996657954505
-0.002555406,0.6782244630936913,2.850156235512565
-0.002554776,0.6782244630936913,2.835595953884599
-0.002554146,0.6818968552518387,2.817395601849649
-0.002553516,0.6818968552518404,2.79555517940769
-0.002552886,0.670879678777393,2.788275038593707
-0.002552256,0.670879678777393,2.77371475696574
-0.002551626,0.670879678777393,2.755514404930782
-0.002550996,0.6708796787773913,2.740954123302806
-0.002550366,0.6672072866192439,2.719113700860865
-0.002549736,0.670879678777393,2.704553419232899
-0.002549106,0.6672072866192456,2.682712996790958
-0.002548476,0.670879678777393,2.668152715162982
-0.002547846,0.6672072866192439,2.646312292721032
-0.002547216,0.6672072866192439,2.628111940686082
-0.002546586,0.6635348944610947,2.617191729465099
-0.002545956,0.6635348944610947,2.598991377430132
-0.002545326,0.6635348944610947,2.580791025395182
-0.002544696,0.6672072866192439,2.569870814174207
-0.002544066,0.6672072866192439,2.551670462139257
-0.002543436,0.6635348944610947,2.53347011010429
-0.002542806,0.6635348944610947,2.515269758069332
-0.002542176,0.6635348944610947,2.497069406034382
-0.002541546,0.6635348944610947,2.478869053999415
-0.002540916,0.6672072866192422,2.464308772371442
-0.002540286,0.6635348944610947,2.449748490743482
-0.002539656,0.6598625023029456,2.435188209115515
-0.002539026,0.6598625023029456,2.413347786673575
-0.002538396,0.6598625023029456,2.395147434638607
-0.002537766,0.6561901101447964,2.376947082603649
-0.002537136,0.6635348944610914,2.355106660161709
-0.002536506,0.6598625023029456,2.344186448940724
-0.002535876,0.6598625023029456,2.322346026498767
-0.002535246,0.6598625023029456,2.307785744870807
-0.002534616,0.6561901101447964,2.289585392835848
-0.002533986,0.6561901101447964,2.26774497039389
-0.002533356,0.6561901101447964,2.24954461835894
-0.002532726,0.6561901101447964,2.234984336730974
-0.002532096,0.6561901101447964,2.220424055103014
-0.002531466,0.6561901101447964,2.198583632661057
-0.002530836,0.6525177179866473,2.184023351033082
-0.002530206,0.6525177179866473,2.165822998998132
-0.002529576,0.6488453258284982,2.151262717370166
-0.002528946,0.6415005415122033,2.133062365335197
-0.002528316,0.6488453258284982,2.111221942893257
-0.002527686,0.6488453258284982,2.093021590858299
-0.002527056,0.6451729336703507,2.082101379637328
-0.002526426,0.645172933670349,2.056620886788382
-0.002525796,0.645172933670349,2.038420534753424
-0.002525166,0.6488453258284982,2.020220182718465
-0.002524536,0.6525177179866473,2.002019830683507
-0.002523906,0.645172933670349,1.983819478648542
-0.002523276,0.645172933670349,1.969259197020582
-0.002522646,0.6415005415121999,1.947418774578632
-0.002522016,0.6415005415121999,1.929218422543682
-0.002521386,0.6415005415121999,1.907378000101724
-0.002520756,0.6488453258284982,1.892817718473757
-0.002520126,0.645172933670349,1.874617366438799
-0.002519496,0.6415005415121999,1.856417014403841
-0.002518866,0.6415005415121999,1.834576591961882
-0.002518236,0.6415005415121999,1.816376239926932
-0.002517606,0.6341557571959016,1.798175887891974
-0.002516976,0.6378281493540491,1.783615606264014
-0.002516346,0.6415005415121999,1.765415254229049
-0.002515716,0.6378281493540507,1.743574831787099
-0.002515086,0.6415005415121983,1.729014550159139
-0.002514456,0.6378281493540507,1.707174127717182
-0.002513826,0.6304833650377525,1.685333705275224
-0.002513196,0.6304833650377525,1.667133353240274
-0.002512566,0.6304833650377525,1.648933001205316
-0.002511936,0.6304833650377525,1.630732649170366
-0.002511306,0.6268109728796033,1.608892226728407
-0.002510676,0.6231385807214542,1.594331945100441
-0.002510046,0.6268109728796016,1.56885145225151
-0.002509416,0.6231385807214542,1.550651100216541
-0.002508786,0.6231385807214559,1.543370959402547
-0.002508156,0.6268109728796033,1.521530536960607
-0.002507526,0.6231385807214542,1.503330184925649
-0.002506896,0.6194661885633067,1.481489762483709
-0.002506266,0.619466188563305,1.463289410448741
-0.002505636,0.6157937964051559,1.445089058413782
-0.002505006,0.6194661885633034,1.430528776785822
-0.002504376,0.619466188563305,1.408688354343866
-0.002503746,0.619466188563305,1.390488002308897
-0.002503116,0.619466188563305,1.368647579866957
-0.002502486,0.6121214042470068,1.346807157425007
-0.002501856,0.6084490120888576,1.321326664576061
-0.002501226,0.6084490120888576,1.310406453355091
-0.002500596,0.6084490120888576,1.295846171727124
-0.002499966,0.6084490120888576,1.274005749285184
-0.002499336,0.6047766199307085,1.252165326843224
-0.002498706,0.6047766199307069,1.233964974808257
-0.002498076,0.6011042277725593,1.215764622773307
-0.002497446,0.5974318356144102,1.197564270738349
-0.002496816,0.5974318356144118,1.183003989110371
-0.002496186,0.6011042277725593,1.15752349626144
-0.002495556,0.5974318356144102,1.139323144226482
-0.002494926,0.6011042277725577,1.121122792191532
-0.002494296,0.5937594434562611,1.102922440156566
-0.002493666,0.5900870512981136,1.077441947307617
-0.002493036,0.5937594434562611,1.062881665679657
-0.002492406,0.5900870512981119,1.048321384051691
-0.002491776,0.5864146591399628,1.026480961609731
-0.002491146,0.5864146591399628,1.004640539167791
-0.002490516,0.5864146591399628,0.9864401871328321
-0.002489886,0.5827422669818153,0.960959694283902
-0.002489256,0.5790698748236645,0.9427593422489322
-0.002488626,0.5790698748236645,0.9281990606209656
-0.002487996,0.5790698748236645,0.9027185677720237
-0.002487366,0.5790698748236645,0.8845182157370655
-0.002486736,0.5717250905073645,0.8626777932951056
-0.002486106,0.5680526983492171,0.8408373708531656
-0.002485476,0.5680526983492171,0.8262770892251989
-0.002484846,0.5643803061910696,0.815356878004229
-0.002484216,0.5607079140329188,0.7935164555622738
-0.002483586,0.5496907375584714,0.7643958923063405
-0.002482956,0.5496907375584714,0.7425554698643906
-0.002482326,0.5496907375584714,0.727995188236424
-0.002481696,0.5496907375584698,0.7061547657944671
-0.002481066,0.5460183454003222,0.6915944841665072
-0.002480436,0.538673561084024,0.6697540617245572
-0.002479806,0.5350011689258765,0.6515537096896072
-0.002479176,0.5313287767677257,0.629713287247649
-0.002478546,0.5203116002932783,0.6042327943987071
-0.002477916,0.5129668159769833,0.5823923719567671
-0.002477286,0.51296681597698,0.5714721607357822
-0.002476656,0.5019496395025309,0.553271808700814
-0.002476026,0.4982772473443835,0.5314313862588738
-0.002475396,0.4909324630280852,0.5095909638169238
-0.002474766,0.4835876787117903,0.4877505413749838
-0.002474136,0.4688981100791904,0.4586299781190405
-0.002473506,0.4578809336047429,0.4477097668980655
-0.002472876,0.4468637571303005,0.4295094148631154
-0.002472246,0.4285017963395498,0.4149491332351405
-0.002471616,0.4138122277069449,0.3931087107931806
-0.002470986,0.3954502669162075,0.3712682883512405
-0.002470356,0.3770883061254618,0.3530679363162822
-0.002469726,0.3587263453347245,0.3312275138743421
-0.002469096,0.3440367767021196,0.3203073026533572
-0.002468466,0.3220024237532247,0.2948268098044156
-0.002467836,0.2962956786461925,0.2729863873624755
-0.002467206,0.2779337178554351,0.2511459649205156
-0.002466576,0.2632441492228318,0.2256654720715656
-0.002465946,0.2485545805902419,0.2074651200366155
-0.002465316,0.2338650119576454,0.1929048384086489
-0.002464686,0.2081582668505881,0.1710644159666906
-0.002464056,0.1787791295854083,0.1528640639317405
-0.002463426,0.1640895609528117,0.1310236414897905
-0.002462796,0.1457276001620744,0.1128232894548405
-0.002462166,0.1236932472131712,0.09826300782686555
-0.002461536,0.1053312864224205,0.08006265579189563
-0.002460906,0.09431410994797805,0.05458216294296555
-0.002460276,0.06860736484093408,0.02910167009402388
-0.002459646,0.04657301189202754,0.01090131805905727
-0.002459016,0.02086626678499525,-0.007299033975892783
-0.002458386,-0.001168086163899587,-0.03277952682483445
-0.002457756,-0.01953004695463694,-0.05461994926677452
-0.002457126,-0.04156439990354013,-0.06918023089475112
-0.002456496,-0.05992636069428583,-0.09102065333670112
-0.002455866,-0.08196071364318067,-0.1092210053716594
-0.002455236,-0.1003226744339264,-0.1274213574066178
-0.002454606,-0.1186846352246787,-0.1419816390345927
-0.002453976,-0.1333742038572686,-0.1601819910695428
-0.002453346,-0.1517361646480143,-0.1747422726975094
-0.002452716,-0.1737705175968991,-0.1929426247324595
-0.002452086,-0.2031496548621023,-0.2184231175814094
-0.002451456,-0.221511615652848,-0.2475436808373428
-0.002450826,-0.2362011842854446,-0.2693841032792928
-0.002450196,-0.2619079293924885,-0.2875844553142511
-0.002449566,-0.2802698901832426,-0.3021447369422277
-0.002448936,-0.2986318509739799,-0.3239851593841678
-0.002448306,-0.3169938117647256,-0.3421855114191261
-0.002447676,-0.335355772555463,-0.3603858634540761
-0.002447046,-0.3573901255043662,-0.3822262858960344
-0.002446416,-0.3757520862951119,-0.4040667083379844
-0.002445786,-0.3977864392439967,-0.4259071307799245
-0.002445156,-0.4124760078766033,-0.4441074828148928
-0.002444526,-0.4345103608255098,-0.4659479052568527
-0.002443896,-0.4602171059325421,-0.4877883276987928
-0.002443266,-0.4859238510395861,-0.5132688205477345
-0.002442636,-0.5079582039884709,-0.5278291021756945
-0.002442006,-0.5263201647792266,-0.5460294542106594
-0.002441376,-0.5410097334118232,-0.560589735838626
-0.002440746,-0.5593716942025606,-0.578790087873576
-0.002440116,-0.5777336549933146,-0.6042705807225262
-0.002439486,-0.5997680079422177,-0.626111003164486
-0.002438856,-0.6181299687329551,-0.647951425606426
-0.002438226,-0.6364919295237008,-0.6625117072343927
-0.002437596,-0.6548538903144382,-0.6807120592693429
-0.002436966,-0.6732158511051922,-0.7025524817113011
-0.002436336,-0.6915778118959379,-0.7171127633392678
-0.002435706,-0.7172845570029703,-0.7353131153742177
-0.002435076,-0.7356465177937277,-0.7607936082231677
-0.002434446,-0.7540084785844834,-0.7789939602581345
-0.002433816,-0.7760428315333682,-0.7971943122930845
-0.002433186,-0.7980771844822631,-0.8117545939210511
-0.002432556,-0.8201115374311645,-0.8372350867700042
-0.002431926,-0.8348011060637545,-0.8627155796189345
-0.002431296,-0.8531630668545002,-0.8772758612469012
-0.002430666,-0.8715250276452375,-0.8991162836888412
-0.002430036,-0.8935593805941406,-0.9136765653168177
-0.002429406,-0.9119213413848947,-0.9282368469447927
-0.002428776,-0.930283302175632,-0.9464371989797427
-0.002428146,-0.955990047282676,-0.9719176918286845
-0.002427516,-0.9706796159152843,-0.9973981846776344
-0.002426886,-0.9963863610223166,-1.015598536712584
-0.002426256,-1.018420713971211,-1.030158818340551
-0.002425626,-1.033110282603801,-1.044719099968511
-0.002424996,-1.051472243394554,-1.066559522410468
-0.002424366,-1.069834204185309,-1.088399944852428
-0.002423736,-1.091868557134194,-1.110240367294368
-0.002423106,-1.113902910083089,-1.128440719329326
-0.002422476,-1.132264870873841,-1.146641071364292
-0.002421846,-1.146954439506431,-1.164841423399243
-0.002421216,-1.161644008139028,-1.183041775434201
-0.002420586,-1.183678361087913,-1.208522268283131
-0.002419956,-1.202040321878668,-1.230362690725093
-0.002419326,-1.227747066985712,-1.248563042760051
-0.002418696,-1.246109027776458,-1.263123324388018
-0.002418066,-1.268143380725353,-1.277683606015984
-0.002417436,-1.286505341516105,-1.292243887643963
-0.002416806,-1.301194910148695,-1.317724380492893
-0.002416176,-1.326901655255739,-1.335924732527851
-0.002415546,-1.341591223888329,-1.357765154969791
-0.002414916,-1.363625576837231,-1.379605577411751
-0.002414286,-1.381987537627976,-1.401445999853701
-0.002413656,-1.396677106260573,-1.416006281481668
-0.002413026,-1.411366674893169,-1.437846703923618
-0.002412396,-1.437073420000225,-1.456047055958584
-0.002411766,-1.462780165107257,-1.474247407993534
-0.002411136,-1.484814518056152,-1.488807689621501
-0.002410506,-1.495831694530595,-1.507008041656451
-0.002409876,-1.506848871005047,-1.528848464098409
-0.002409246,-1.525210831795793,-1.543408745726376
-0.002408616,-1.554589969060973,-1.561609097761326
-0.002407986,-1.569279537693582,-1.587089590610276
-0.002407356,-1.591313890642487,-1.608930013052236
-0.002406726,-1.613348243591372,-1.630770435494176
-0.002406096,-1.631710204382118,-1.652610857936126
-0.002405466,-1.639054988698413,-1.667171139564086
-0.002404836,-1.661089341647311,-1.692651632413034
-0.002404206,-1.683123694596206,-1.703571843634009
-0.002403576,-1.701485655386943,-1.721772195668959
-0.002402946,-1.727192400493995,-1.736332477296934
-0.002402316,-1.745554361284748,-1.754532829331899
-0.002401686,-1.760243929917338,-1.769093110959859
-0.002401056,-1.778605890708084,-1.790933533401809
-0.002400426,-1.796967851498821,-1.812773955843749
-0.002399796,-1.819002204447724,-1.830974307878718
-0.002399166,-1.841036557396619,-1.852814730320668
-0.002398536,-1.863070910345504,-1.874655152762608
-0.002397906,-1.87776047897811,-1.892855504797576
-0.002397276,-1.892450047610717,-1.907415786425551
-0.002396646,-1.914484400559602,-1.925616138460501
-0.002396016,-1.932846361350347,-1.943816490495459
-0.002395386,-1.954880714299247,-1.962016842530426
-0.002394756,-1.965897890773689,-1.980217194565376
-0.002394126,-1.984259851564435,-2.002057617007326
-0.002393496,-1.998949420197025,-2.012977828228296
-0.002392866,-2.017311380987777,-2.027538109856268
-0.002392236,-2.039345733936683,-2.049378532298226
-0.002391606,-2.061380086885567,-2.067578884333176
-0.002390976,-2.076069655518164,-2.093059377182118
-0.002390346,-2.094431616308913,-2.107619658810089
-0.002389716,-2.101776400625207,-2.118539870031059
-0.002389086,-2.123810753574102,-2.136740222066018
-0.002388456,-2.14217271436484,-2.158580644507958
-0.002387826,-2.160534675155594,-2.18406113735691
-0.002387196,-2.1752242437882,-2.198621418984885
-0.002386566,-2.197258596737085,-2.216821771019835
-0.002385936,-2.215620557527831,-2.231382052647801
-0.002385306,-2.233982518318585,-2.249582404682766
-0.002384676,-2.252344479109322,-2.264142686310726
-0.002384046,-2.274378832058217,-2.289623179159668
-0.002383416,-2.292740792848954,-2.307823531194618
-0.002382786,-2.311102753639708,-2.326023883229584
-0.002382156,-2.325792322272305,-2.33694409445056
-0.002381526,-2.336809498746752,-2.351504376078526
-0.002380896,-2.355171459537498,-2.366064657706493
-0.002380266,-2.373533420328254,-2.387905080148453
-0.002379636,-2.395567773277139,-2.409745502590393
-0.002379006,-2.413929734067884,-2.427945854625351
-0.002378376,-2.428619302700474,-2.446146206660301
-0.002377746,-2.443308871333078,-2.453426347474293
-0.002377116,-2.457998439965674,-2.475266769916243
-0.002376486,-2.483705185072707,-2.493467121951193
-0.002375856,-2.505739538021613,-2.511667473986159
-0.002375226,-2.516756714496065,-2.529867826021125
-0.002374596,-2.527773890970508,-2.544428107649085
-0.002373966,-2.542463459603104,-2.55534831887006
-0.002373336,-2.564497812551989,-2.573548670905009
-0.002372706,-2.582859773342745,-2.591749022939976
-0.002372076,-2.601221734133491,-2.613589445381926
-0.002371446,-2.619583694924228,-2.635429867823866
-0.002370816,-2.641618047873131,-2.653630219858834
-0.002370186,-2.65998000866388,-2.668190501486808
-0.002369556,-2.667324792980175,-2.682750783114768
-0.002368926,-2.68935914592907,-2.697311064742734
-0.002368296,-2.70404871456166,-2.715511416777685
-0.002367666,-2.718738283194263,-2.737351839219643
-0.002367036,-2.737100243985009,-2.755552191254601
-0.002366406,-2.751789812617599,-2.770112472882561
-0.002365776,-2.759134596933904,-2.777392613696551
-0.002365146,-2.781168949882807,-2.795592965731519
-0.002364516,-2.799530910673544,-2.817433388173459
-0.002363886,-2.814220479306141,-2.835633740208418
-0.002363256,-2.836254832255046,-2.850194021836393
-0.002362626,-2.85828918520393,-2.868394373871343
-0.002361996,-2.869306361678378,-2.879314585092318
-0.002361366,-2.88032353815282,-2.897514937127268
-0.002360736,-2.898685498943571,-2.908435148348251
-0.002360106,-2.920719851892473,-2.926635500383216
-0.002359476,-2.935409420525062,-2.941195782011176
-0.002358846,-2.950098989157659,-2.963036204453126
-0.002358216,-2.961116165632111,-2.9775964860811
-0.002357586,-2.972133342106554,-2.992156767709059
-0.002356956,-2.990495302897299,-3.010357119744018
-0.002356326,-3.012529655846184,-3.024917401371978
-0.002355696,-3.03089161663694,-3.039477682999951
-0.002355066,-3.049253577427693,-3.057678035034918
-0.002354436,-3.063943146060282,-3.075878387069868
-0.002353806,-3.071287930376581,-3.086798598290843
-0.002353176,-3.082305106851038,-3.101358879918818
-0.002352546,-3.104339459799923,-3.119559231953768
-0.002351916,-3.122701420590669,-3.134119513581735
-0.002351286,-3.137390989223258,-3.148679795209695
-0.002350656,-3.155752950014011,-3.170520217651651
-0.002350026,-3.166770126488458,-3.177800358465634
-0.002349396,-3.177787302962905,-3.192360640093601
-0.002348766,-3.196149263753651,-3.210560992128559
-0.002348136,-3.214511224544405,-3.225121273756534
-0.002347506,-3.232873185335142,-3.243321625791484
-0.002346876,-3.247562753967739,-3.261521977826443
-0.002346246,-3.258579930442182,-3.276082259454403
-0.002345616,-3.269597106916634,-3.287002470675385
-0.002344986,-3.28795906770738,-3.305202822710343
-0.002344356,-3.306321028498125,-3.316123033931318
-0.002343726,-3.321010597130722,-3.337963456373268
-0.002343096,-3.339372557921471,-3.352523738001239
-0.002342466,-3.346717342237766,-3.363443949222209
-0.002341836,-3.357734518712213,-3.374364160443184
-0.002341206,-3.379768871661098,-3.388924442071144
-0.002340576,-3.394458440293705,-3.403484723699118
