Spring 2022/Electornics 1 Lab/lab 3/PreLab/lab3_prelab_figure2_10kresistor_D2_with_Vin_data.csv

#Digilent WaveForms Oscilloscope Acquisition
#Device Name: Discovery2
#Serial Number: SN:210321B0DF82
#Date Time: 2022-02-28 21:30:55.089
#Sample rate: 1.5873e+06Hz
#Samples: 8192
#Trigger: Source: Channel 1 Type: Edge Condition: Rising Level: -1.27837 V Hyst.: Auto HoldOff: 100 ns
#Channel 1: Range: 5 V/div Offset: 0 V Attenuation: 1 X Sample Mode: Average
#Channel 2: Range: 5 V/div Offset: 0 V Attenuation: 1 X Sample Mode: Average
#Wavegen Channel 1: Running
#Mode: Simple
#Type: Sine
#Frequency: 1 kHz
#Period: 1 ms
#Amplitude: 5 V
#Offset: 0 V
#Symmetry: 50 %
#Phase: 0 °

Time (s),Channel 1 (V),Channel 2 (V)
-0.002579976,0.5643803061910679,3.45076785266619
-0.002579346,0.5680526983492155,3.43620757103823
-0.002578716,0.5680526983492171,3.414367148596273
-0.002578086,0.5643803061910679,3.403446937375294
-0.002577456,0.5643803061910679,3.392526726154323
-0.002576826,0.5570355218747697,3.377966444526357
-0.002576196,0.5607079140329171,3.370686303712377
-0.002575566,0.5607079140329188,3.356126022084407
-0.002574936,0.5643803061910679,3.337925670049449
-0.002574306,0.5607079140329204,3.319725318014499
-0.002573676,0.5607079140329188,3.301524965979532
-0.002573046,0.5607079140329188,3.286964684351562
-0.002572416,0.5607079140329188,3.279684543537582
-0.002571786,0.5643803061910679,3.265124261909615
-0.002571156,0.5643803061910679,3.24692390987465
-0.002570526,0.5643803061910679,3.23236362824669
-0.002569896,0.5607079140329188,3.217803346618723
-0.002569266,0.5607079140329188,3.199602994583774
-0.002568636,0.5643803061910679,3.185042712955799
-0.002568006,0.5643803061910663,3.166842360920834
-0.002567376,0.5607079140329188,3.152282079292874
-0.002566746,0.5607079140329188,3.137721797664907
-0.002566116,0.5607079140329188,3.119521445629944
-0.002565486,0.5607079140329188,3.108601234408974
-0.002564856,0.5607079140329188,3.090400882374015
-0.002564226,0.5643803061910663,3.075840600746055
-0.002563596,0.5607079140329188,3.064920389525073
-0.002562966,0.5643803061910663,3.046720037490105
-0.002562336,0.5607079140329188,3.024879615048165
-0.002561706,0.5643803061910679,3.006679263013207
-0.002561076,0.5643803061910663,2.988478910978247
-0.002560446,0.5607079140329188,2.984838840571257
-0.002559816,0.5607079140329188,2.966638488536299
-0.002559186,0.5643803061910663,2.948438136501349
-0.002558556,0.5607079140329188,2.933877854873374
-0.002557926,0.5570355218747697,2.908397362024432
-0.002557296,0.5533631297166205,2.897477150803457
-0.002556666,0.5607079140329188,2.88291686917549
-0.002556036,0.5643803061910663,2.868356587547517
-0.002555406,0.5607079140329188,2.853796305919557
-0.002554776,0.5607079140329188,2.835595953884599
-0.002554146,0.5607079140329188,2.821035672256639
-0.002553516,0.5607079140329188,2.799195249814682
-0.002552886,0.5570355218747697,2.780994897779724
-0.002552256,0.5533631297166205,2.766434616151757
-0.002551626,0.5496907375584714,2.75187433452379
-0.002550996,0.5570355218747697,2.733673982488825
-0.002550366,0.5570355218747697,2.719113700860865
-0.002549736,0.5533631297166205,2.700913348825907
-0.002549106,0.5496907375584731,2.686353067197947
-0.002548476,0.5496907375584714,2.675432855976965
-0.002547846,0.5533631297166205,2.657232503942007
-0.002547216,0.5496907375584731,2.635392081500067
-0.002546586,0.5533631297166205,2.613551659058107
-0.002545956,0.5496907375584731,2.602631447837122
-0.002545326,0.5533631297166205,2.580791025395182
-0.002544696,0.5533631297166205,2.573510884581199
-0.002544066,0.5496907375584731,2.555310532546249
-0.002543436,0.5460183454003222,2.540750250918274
-0.002542806,0.5533631297166205,2.518909828476324
-0.002542176,0.5496907375584731,2.500709476441374
-0.002541546,0.5460183454003222,2.486149194813398
-0.002540916,0.5423459532421747,2.471588913185422
-0.002540286,0.5460183454003222,2.449748490743482
-0.002539656,0.5496907375584714,2.435188209115515
-0.002539026,0.5460183454003239,2.416987857080565
-0.002538396,0.5460183454003222,2.398787505045599
-0.002537766,0.5460183454003222,2.38058715301064
-0.002537136,0.5496907375584698,2.36602687138268
-0.002536506,0.5533631297166205,2.344186448940724
-0.002535876,0.5460183454003222,2.325986096905757
-0.002535246,0.5460183454003222,2.307785744870807
-0.002534616,0.5460183454003222,2.285945322428857
-0.002533986,0.5423459532421747,2.26774497039389
-0.002533356,0.5460183454003222,2.24954461835894
-0.002532726,0.5460183454003222,2.234984336730974
-0.002532096,0.5460183454003222,2.224064125510004
-0.002531466,0.5460183454003222,2.209503843882032
-0.002530836,0.538673561084024,2.184023351033082
-0.002530206,0.538673561084024,2.165822998998132
-0.002529576,0.5350011689258748,2.147622646963174
-0.002528946,0.5423459532421714,2.133062365335198
-0.002528316,0.538673561084024,2.114862013300248
-0.002527686,0.538673561084024,2.093021590858299
-0.002527056,0.538673561084024,2.074821238823349
-0.002526426,0.538673561084024,2.056620886788382
-0.002525796,0.538673561084024,2.038420534753424
-0.002525166,0.538673561084024,2.023860253125457
-0.002524536,0.5423459532421731,2.002019830683507
-0.002523906,0.5386735610840206,1.987459549055532
-0.002523276,0.5313287767677257,1.969259197020582
-0.002522646,0.5313287767677257,1.951058844985624
-0.002522016,0.5350011689258731,1.929218422543684
-0.002521386,0.5350011689258748,1.911018070508716
-0.002520756,0.5313287767677257,1.896457788880749
-0.002520126,0.5313287767677257,1.87825743684579
-0.002519496,0.5313287767677257,1.856417014403841
-0.002518866,0.5350011689258731,1.834576591961886
-0.002518236,0.5313287767677257,1.823656380740916
-0.002517606,0.5313287767677257,1.801815958298965
-0.002516976,0.5276563846095782,1.779975535857026
-0.002516346,0.5313287767677257,1.765415254229049
-0.002515716,0.5313287767677257,1.747214902194091
-0.002515086,0.5276563846095782,1.729014550159141
-0.002514456,0.5276563846095765,1.714454268531165
-0.002513826,0.5239839924514273,1.692613846089209
-0.002513196,0.5239839924514273,1.678053564461249
-0.002512566,0.5276563846095765,1.659853212426291
-0.002511936,0.5276563846095765,1.634372719577361
-0.002511306,0.5239839924514273,1.608892226728407
-0.002510676,0.5166392081351291,1.587051804286457
-0.002510046,0.5203116002932766,1.565211381844517
-0.002509416,0.5203116002932783,1.547011029809549
-0.002508786,0.5166392081351308,1.536090818588566
-0.002508156,0.5203116002932783,1.517890466553615
-0.002507526,0.5203116002932783,1.503330184925649
-0.002506896,0.5129668159769833,1.481489762483709
-0.002506266,0.5166392081351291,1.463289410448741
-0.002505636,0.5092944238188308,1.437808917599799
-0.002505006,0.5092944238188308,1.426888706378829
-0.002504376,0.51296681597698,1.405048283936874
-0.002503746,0.5129668159769817,1.386847931901904
-0.002503116,0.5166392081351291,1.361367439052974
-0.002502486,0.5166392081351291,1.346807157425007
-0.002501856,0.512966815976975,1.324966734983051
-0.002501226,0.5019496395025326,1.310406453355091
-0.002500596,0.5092944238188308,1.292206101320132
-0.002499966,0.5129668159769784,1.277645819692172
-0.002499336,0.5056220316606816,1.255805397250215
-0.002498706,0.5019496395025342,1.233964974808256
-0.002498076,0.5056220316606816,1.212124552366316
-0.002497446,0.5056220316606816,1.193924200331357
-0.002496816,0.50562203166068,1.179363918703382
-0.002496186,0.5019496395025326,1.161163566668432
-0.002495556,0.4982772473443835,1.142963214633474
-0.002494926,0.494604855186236,1.124762862598524
-0.002494296,0.4946048551862343,1.102922440156566
-0.002493666,0.4909324630280852,1.073801876900626
-0.002493036,0.4909324630280852,1.059241595272665
-0.002492406,0.4909324630280852,1.044681313644699
-0.002491776,0.4872600708699361,1.022840891202737
-0.002491146,0.4872600708699361,0.9973603983538071
-0.002490516,0.4835876787117869,0.9755199759118571
-0.002489886,0.4762428943954919,0.9573196238769072
-0.002489256,0.4799152865536378,0.9500394830629155
-0.002488626,0.4799152865536378,0.9281990606209656
-0.002487996,0.4799152865536378,0.9063586381790154
-0.002487366,0.4762428943954886,0.8808781453300738
-0.002486736,0.4762428943954869,0.8626777932951089
-0.002486106,0.4725705022373395,0.8481175116671489
-0.002485476,0.4688981100791904,0.8299171596321906
-0.002484846,0.4652257179210429,0.8117168075972404
-0.002484216,0.4688981100791904,0.7825962443412988
-0.002483586,0.4652257179210412,0.7680359627133322
-0.002482956,0.4652257179210412,0.7461955402713822
-0.002482326,0.4615533257628921,0.727995188236424
-0.002481696,0.4542085414465938,0.7061547657944671
-0.002481066,0.4542085414465938,0.6915944841665072
-0.002480436,0.4505361492884447,0.6697540617245572
-0.002479806,0.4468637571302972,0.6515537096896072
-0.002479176,0.4468637571302955,0.6333533576546406
-0.002478546,0.4431913649721464,0.6151530056196821
-0.002477916,0.4358465806558514,0.5969526535847322
-0.002477286,0.4285017963395498,0.5787523015497655
-0.002476656,0.4248294041814007,0.560551949514794
-0.002476026,0.4248294041814007,0.5314313862588738
-0.002475396,0.4211570120232515,0.5132310342239155
-0.002474766,0.4138122277069566,0.4950306821889655
-0.002474136,0.4027950512325058,0.4695501893400155
-0.002473506,0.3991226590743567,0.4513498373050572
-0.002472876,0.3917778747580618,0.4367895556770972
-0.002472246,0.3844330904417602,0.4185892036421322
-0.002471616,0.3770883061254552,0.4003888516071639
-0.002470986,0.3623987374928653,0.3785484291652239
-0.002470356,0.3513815610184179,0.3530679363162822
-0.002469726,0.3403643845439754,0.3275874434673521
-0.002469096,0.3330196002276722,0.3203073026533572
-0.002468466,0.3220024237532247,0.2984668802114072
-0.002467836,0.3036404629624874,0.2766264577694671
-0.002467206,0.2816061100135842,0.2547860353275072
-0.002466576,0.2632441492228318,0.2329456128855473
-0.002465946,0.2485545805902419,0.2111051904436072
-0.002465316,0.2301926197994962,0.2001849792226322
-0.002464686,0.2155030511668913,0.178344556780669
-0.002464056,0.197141090376154,0.1492239935247489
-0.002463426,0.17143434526911,0.1273835710827989
-0.002462796,0.1530723844783727,0.1055431486408588
-0.002462166,0.1310380315294695,0.08734279660589055
-0.002461536,0.1126760707387187,0.0691424445709256
-0.002460906,0.1016588942642763,0.05458216294296555
-0.002460276,0.08329693347353063,0.03638181090800721
-0.002459646,0.06126258052462411,0.01090131805905562
-0.002459016,0.03555583541759182,-0.01093910438288445
-0.002458386,0.009849090310547834,-0.02913945641784278
-0.002457756,-0.004840478322042046,-0.05097987885978285
-0.002457126,-0.01953004695464529,-0.06554016048775944
-0.002456496,-0.03789200774539099,-0.08738058292970945
-0.002455866,-0.06727114501058411,-0.1055809349646678
-0.002455236,-0.08563310580132981,-0.1201412165926345
-0.002454606,-0.107667458750233,-0.1419816390345944
-0.002453976,-0.1260294195409704,-0.1638220614765344
-0.002453346,-0.1443913803317161,-0.1820224135114928
-0.002452716,-0.1664257332806009,-0.1965826951394528
-0.002452086,-0.1884600862295057,-0.2184231175814094
-0.002451456,-0.2031496548621023,-0.2366234696163678
-0.002450826,-0.221511615652848,-0.2584638920583178
-0.002450196,-0.2435459686017428,-0.2839443849072594
-0.002449566,-0.2619079293924952,-0.2985046665352361
-0.002448936,-0.2765974980250851,-0.3203450889771761
-0.002448306,-0.3023042431321291,-0.3385454410121345
-0.002447676,-0.3206662039228664,-0.3603858634540745
-0.002447046,-0.3390281647136205,-0.3822262858960344
-0.002446416,-0.3573901255043662,-0.4004266379309928
-0.002445786,-0.3830968706113984,-0.4222670603729328
-0.002445156,-0.3977864392440067,-0.4368273420009094
-0.002444526,-0.4198207921929116,-0.4623078348498577
-0.002443896,-0.4418551451417964,-0.4768681164778177
-0.002443266,-0.4675618902488404,-0.4987085389197677
-0.002442636,-0.4895962431977252,-0.5241890317686979
-0.002442006,-0.5079582039884809,-0.5496695246176511
-0.002441376,-0.5299925569373758,-0.560589735838626
-0.002440746,-0.5410097334118182,-0.578790087873576
-0.002440116,-0.563044086360718,-0.6006305103155345
-0.002439486,-0.5850784393096229,-0.6224709327574943
-0.002438856,-0.6071127922585078,-0.6443113551994344
-0.002438226,-0.6254747530492535,-0.6625117072343927
-0.002437596,-0.6438367138399909,-0.6807120592693429
-0.002436966,-0.6585262824725957,-0.6989124113043095
-0.002436336,-0.6805606354214906,-0.7243929041532511
-0.002435706,-0.698922596212228,-0.742593256188201
-0.002435076,-0.7209569491611311,-0.757153537816176
-0.002434446,-0.7429913021100343,-0.7753538898511428
-0.002433816,-0.7613532629007717,-0.7935542418860928
-0.002433186,-0.7760428315333682,-0.8081145235140594
-0.002432556,-0.7944047923241239,-0.8335950163630109
-0.002431926,-0.8164391452730088,-0.855435438804951
-0.002431296,-0.8348011060637545,-0.8736357908399095
-0.002430666,-0.8568354590126392,-0.8881960724678695
-0.002430036,-0.8788698119615441,-0.9100364949098261
-0.002429406,-0.8935593805941473,-0.924596776537801
-0.002428776,-0.9082489492267373,-0.942797128572751
-0.002428146,-0.9339556943337812,-0.9682776214216928
-0.002427516,-0.9523176551245386,-0.9901180438636511
-0.002426886,-0.9780244002315709,-1.008318395898601
-0.002426256,-0.9927139688641674,-1.030158818340551
-0.002425626,-1.014748321813052,-1.051999240782491
-0.002424996,-1.02576549828751,-1.070199592817459
-0.002424366,-1.044127459078265,-1.084759874445434
-0.002423736,-1.06616181202715,-1.102960226480384
-0.002423106,-1.091868557134194,-1.121160578515343
-0.002422476,-1.113902910083094,-1.146641071364296
-0.002421846,-1.124920086557536,-1.172121564213226
-0.002421216,-1.139609655190133,-1.190321916248184
-0.002420586,-1.165316400297165,-1.208522268283134
-0.002419956,-1.183678361087923,-1.230362690725093
-0.002419326,-1.198367929720519,-1.248563042760051
-0.002418696,-1.216729890511265,-1.270403465202001
-0.002418066,-1.242436635618309,-1.281323676422976
-0.002417436,-1.260798596409065,-1.299524028457944
-0.002416806,-1.28283294935795,-1.321364450899884
-0.002416176,-1.301194910148695,-1.343204873341834
-0.002415546,-1.32322926309758,-1.361405225376785
-0.002414916,-1.341591223888336,-1.379605577411751
-0.002414286,-1.359953184679082,-1.397805929446709
-0.002413656,-1.381987537627976,-1.412366211074676
-0.002413026,-1.396677106260573,-1.430566563109634
-0.002412396,-1.415039067051329,-1.452406985551594
-0.002411766,-1.437073420000213,-1.474247407993534
-0.002411136,-1.455435380790959,-1.488807689621501
-0.002410506,-1.477469733739844,-1.507008041656451
-0.002409876,-1.49215930237245,-1.525208393691418
-0.002409246,-1.510521263163196,-1.536128604912393
-0.002408616,-1.528883223953933,-1.561609097761323
-0.002407986,-1.547245184744688,-1.587089590610276
-0.002407356,-1.569279537693589,-1.598009801831263
-0.002406726,-1.583969106326179,-1.623490294680193
-0.002406096,-1.602331067116925,-1.645330717122143
-0.002405466,-1.613348243591367,-1.659890998750103
-0.002404836,-1.639054988698416,-1.678091350785068
-0.002404206,-1.657416949489162,-1.699931773227018
-0.002403576,-1.675778910279899,-1.718132125261968
-0.002402946,-1.697813263228802,-1.743612618110918
-0.002402316,-1.719847616177706,-1.758172899738889
-0.002401686,-1.738209576968443,-1.769093110959859
-0.002401056,-1.74922675344289,-1.787293462994818
-0.002400426,-1.771261106391775,-1.805493815029768
-0.002399796,-1.785950675024382,-1.823694167064734
-0.002399166,-1.804312635815127,-1.845534589506684
-0.002398536,-1.83001938092216,-1.867375011948624
-0.002397906,-1.844708949554768,-1.885575363983593
-0.002397276,-1.859398518187376,-1.903775716018559
-0.002396646,-1.885105263294409,-1.921976068053509
-0.002396016,-1.903467224085154,-1.943816490495459
-0.002395386,-1.918156792717759,-1.958376772123434
-0.002394756,-1.936518753508496,-1.976577124158384
-0.002394126,-1.951208322141093,-1.994777476193343
-0.002393496,-1.96957028293183,-2.009337757821303
-0.002392866,-1.991604635880734,-2.034818250670251
-0.002392236,-2.00629420451334,-2.053018602705216
-0.002391606,-2.028328557462225,-2.067578884333176
-0.002390976,-2.05036291041112,-2.089419306775126
-0.002390346,-2.068724871201869,-2.103979588403098
-0.002389716,-2.076069655518164,-2.114899799624068
-0.002389086,-2.098104008467058,-2.136740222066018
-0.002388456,-2.120138361415943,-2.154940574100968
-0.002387826,-2.131155537890401,-2.180421066949918
-0.002387196,-2.156862282997453,-2.198621418984885
-0.002386566,-2.17522424378819,-2.216821771019835
-0.002385936,-2.197258596737085,-2.224101911833818
-0.002385306,-2.204603381053392,-2.238662193461794
-0.002384676,-2.222965341844129,-2.260502615903734
-0.002384046,-2.241327302634875,-2.285983108752676
-0.002383416,-2.259689263425612,-2.307823531194616
-0.002382786,-2.278051224216366,-2.322383812822593
-0.002382156,-2.300085577165261,-2.340584164857551
-0.002381526,-2.311102753639708,-2.351504376078526
-0.002380896,-2.325792322272305,-2.366064657706493
-0.002380266,-2.344154283063059,-2.387905080148453
-0.002379636,-2.362516243853797,-2.409745502590393
-0.002379006,-2.380878204644542,-2.42430578421836
-0.002378376,-2.402912557593427,-2.4461462066603
-0.002377746,-2.413929734067884,-2.457066417881284
-0.002377116,-2.43229169485863,-2.471626699509251
-0.002376486,-2.443308871333073,-2.489827051544201
-0.002375856,-2.457998439965674,-2.508027403579168
-0.002375226,-2.483705185072727,-2.522587685207144
-0.002374596,-2.502067145863464,-2.544428107649085
-0.002373966,-2.516756714496061,-2.558988389277051
-0.002373336,-2.538791067444945,-2.573548670905011
-0.002372706,-2.553480636077552,-2.591749022939976
-0.002372076,-2.568170204710148,-2.613589445381926
-0.002371446,-2.586532165500885,-2.628149727009886
-0.002370816,-2.601221734133491,-2.646350079044851
-0.002370186,-2.62325608708239,-2.653630219858844
-0.002369556,-2.634273263556833,-2.675470642300784
-0.002368926,-2.648962832189429,-2.690030923928751
-0.002368296,-2.663652400822019,-2.704591205556711
-0.002367666,-2.682014361612772,-2.726431627998668
-0.002367036,-2.700376322403518,-2.744631980033626
-0.002366406,-2.722410675352402,-2.766472402475566
-0.002365776,-2.737100243985009,-2.781032684103543
-0.002365146,-2.759134596933909,-2.795592965731518
-0.002364516,-2.770151773408351,-2.813793317766468
-0.002363886,-2.784841342040948,-2.831993669801426
-0.002363256,-2.803203302831704,-2.853834092243383
-0.002362626,-2.825237655780588,-2.868394373871343
-0.002361996,-2.843599616571334,-2.879314585092318
-0.002361366,-2.850944400887629,-2.893874866720278
-0.002360736,-2.865633969520229,-2.912075218755243
-0.002360106,-2.880323538152835,-2.93027557079021
-0.002359476,-2.90235789110172,-2.94847592282516
-0.002358846,-2.920719851892466,-2.959396134046135
-0.002358216,-2.935409420525067,-2.970316345267116
-0.002357586,-2.94642659699951,-2.984876626895076
-0.002356956,-2.961116165632106,-2.999436908523043
-0.002356326,-2.979478126422844,-3.021277330964983
-0.002355696,-2.990495302897299,-3.035837612592959
-0.002355066,-3.008857263688052,-3.054037964627921
-0.002354436,-3.023546832320642,-3.061318105441901
-0.002353806,-3.038236400953238,-3.07951845747686
-0.002353176,-3.052925969585843,-3.10499895032581
-0.002352546,-3.071287930376581,-3.12319930236076
-0.002351916,-3.089649891167326,-3.130479443174743
-0.002351286,-3.104339459799916,-3.145039724802703
-0.002350656,-3.119029028432519,-3.159600006430676
-0.002350026,-3.133718597065116,-3.174160288058643
-0.002349396,-3.144735773539563,-3.188720569686609
-0.002348766,-3.155752950014011,-3.206920921721568
-0.002348136,-3.170442518646616,-3.225121273756536
-0.002347506,-3.188804479437353,-3.246961696198476
-0.002346876,-3.210838832386248,-3.257881907419451
-0.002346246,-3.22185600886069,-3.265162048233432
-0.002345616,-3.236545577493292,-3.283362400268393
-0.002344986,-3.251235146125888,-3.294282611489368
-0.002344356,-3.265924714758485,-3.312482963524326
-0.002343726,-3.284286675549231,-3.337963456373268
-0.002343096,-3.302648636339983,-3.348883667594248
-0.002342466,-3.317338204972573,-3.359803878815218
-0.002341836,-3.32835538144702,-3.370724090036193
-0.002341206,-3.34304495007961,-3.385284371664153
-0.002340576,-3.357734518712213,-3.399844653292126
